<svg width="65" height="64" viewBox="0 0 65 64" fill="none" xmlns="http://www.w3.org/2000/svg">
<path d="M59.3454 37.9743L59.2692 38.2808C59.2393 38.4028 59.2031 38.5439 59.1647 38.6851L58.8649 39.7172C58.8356 39.8104 58.8051 39.9058 58.774 39.9995L58.6724 40.3038C58.6329 40.4201 58.5926 40.5361 58.5516 40.6516L57.7504 42.6492L57.4455 43.3019C57.4128 43.3696 57.3806 43.4374 57.3467 43.5051L57.0277 44.1301C56.965 44.2481 56.9024 44.3633 56.8391 44.4779L56.3265 45.3768C56.2053 45.58 56.0805 45.7829 55.9521 45.9854C55.7828 46.2542 55.5925 46.5376 55.3745 46.8538C55.3458 46.8978 55.3271 46.9255 55.3085 46.9526L55.256 47.026C55.0584 47.3083 54.8709 47.5629 54.6795 47.8164L54.4988 48.0525C54.3091 48.2969 54.1172 48.5386 53.9207 48.774L53.7366 48.9897C53.5774 49.1779 53.4163 49.3623 53.2533 49.543L52.9851 49.8383C52.8547 49.9789 52.7136 50.1291 52.5702 50.277L52.1608 50.688C51.9801 50.8659 51.7978 51.0426 51.6126 51.2148L51.2738 51.5236C51.131 51.6518 50.9859 51.78 50.8391 51.9059L50.3767 52.2955C50.2406 52.4084 50.0994 52.5213 49.9572 52.6342L49.7483 52.7974C49.6805 52.8539 49.6116 52.9041 49.5433 52.956L49.3395 53.1085C49.0945 53.2903 48.8505 53.4659 48.6055 53.637L48.5649 53.6652C48.4395 53.7521 48.3023 53.8436 48.1646 53.9351L47.9263 54.0909C47.8664 54.1299 47.8038 54.1688 47.7417 54.2083L47.5672 54.3179C47.4543 54.389 47.3351 54.4624 47.2143 54.5358L47.1319 54.5844C46.9772 54.6775 46.8118 54.7752 46.6452 54.8701L46.5961 54.8983C45.6232 55.4518 44.6175 55.9454 43.5845 56.3764L43.5004 56.4114C40.8002 57.526 37.9411 58.2074 35.0285 58.4305C34.8094 58.447 34.5903 58.4611 34.3713 58.4728C33.7169 58.5078 33.0512 58.5197 32.3923 58.5078C31.9514 58.5005 31.5065 58.4818 31.0689 58.4513C28.8361 58.3063 26.629 57.8927 24.4952 57.2194C24.2795 57.1516 24.0642 57.0809 23.8493 57.0071C22.9888 56.7118 22.1312 56.3696 21.3012 55.9908C20.2411 55.505 19.2119 54.9542 18.2196 54.3416C18.0021 54.208 17.7875 54.0713 17.576 53.9317L16.8888 53.4653C16.7257 53.3524 16.567 53.2395 16.4112 53.1266L16.0724 52.873C15.903 52.7454 15.745 52.6224 15.5869 52.4976L15.4898 52.4214C15.2263 52.2102 14.9669 51.9958 14.7117 51.7783L14.6508 51.7252C7.0811 45.1944 3.72452 35.1693 5.88865 25.5592L5.9039 25.4903C6.0298 24.9398 6.17547 24.3825 6.33638 23.8416L6.36574 23.7445C6.43575 23.5142 6.50802 23.2872 6.58311 23.0597L6.63958 22.8954C6.70319 22.7072 6.77 22.519 6.84001 22.3308L6.86316 22.2647C6.97608 21.957 7.09691 21.6482 7.22338 21.341L7.29508 21.1637C7.37977 20.9622 7.46446 20.7634 7.55536 20.5652L7.88396 19.8651C7.9201 19.79 7.95567 19.7149 7.99293 19.6393L8.20692 19.222C8.26338 19.1131 8.31984 19.0013 8.38195 18.8901L8.57335 18.5383C8.64844 18.4039 8.7241 18.2718 8.79919 18.1403L8.95502 17.8721C9.08714 17.6508 9.22038 17.4323 9.35815 17.2154C9.50156 16.9896 9.64835 16.7677 9.79741 16.5475L9.96679 16.3053C10.0295 16.2138 10.0927 16.1224 10.1565 16.032L10.4038 15.6933C10.5348 15.5149 10.6697 15.3364 10.8064 15.1603L11.0486 14.8509C11.3371 14.4907 11.625 14.1485 11.9175 13.8177L11.9779 13.7505C12.2704 13.4224 12.5736 13.0983 12.8779 12.7906L12.9344 12.7342C13.2438 12.4214 13.5661 12.1131 13.8897 11.8167L13.9286 11.7806C14.2623 11.4774 14.6061 11.1787 14.9528 10.8947C22.0499 5.06741 31.5855 3.19575 40.4735 5.87762L40.5808 5.91037C41.1832 6.09443 41.7885 6.30559 42.379 6.53143L42.5185 6.58789C43.0679 6.80131 43.611 7.03224 44.1338 7.27389L44.424 7.41165C44.5595 7.47602 44.6905 7.54038 44.8193 7.60531L44.9988 7.69565C45.1697 7.78222 45.3391 7.8703 45.507 7.95988L45.7215 8.0728C45.8427 8.13905 45.963 8.20567 46.0823 8.27267L46.4154 8.46125C46.6412 8.59186 46.8656 8.72586 47.0884 8.86325C48.5595 9.77221 49.9433 10.8155 51.2219 11.9799L51.2586 12.0025L51.3405 12.0877C51.6391 12.3638 51.9355 12.6495 52.2218 12.938C52.5273 13.2468 52.8158 13.5523 53.0936 13.8589L53.1178 13.8871C54.7732 15.7241 56.1694 17.7789 57.2677 19.9944C57.4568 20.3755 57.6251 20.7374 57.7826 21.0948L57.8018 21.1394C57.9576 21.4951 58.1078 21.8593 58.2495 22.2235L58.2715 22.2799C58.4121 22.6464 58.5459 23.0139 58.6668 23.3781L58.6764 23.4086C58.8074 23.8004 58.9231 24.1719 59.0247 24.5282L59.0405 24.5847C59.2703 25.3898 59.4674 26.2316 59.6215 27.0689L59.6356 27.1485C59.6701 27.3416 59.7034 27.5347 59.7339 27.7289L59.8496 28.5437C59.8716 28.7204 59.892 28.8915 59.91 29.0631L59.9891 29.9151C60.0015 30.0781 60.0122 30.2416 60.0212 30.4057L60.0308 30.5881C60.0393 30.7575 60.0455 30.9207 60.05 31.0821L60.0557 31.2769C60.0557 31.4152 60.0608 31.5558 60.0613 31.697V31.9533C60.0613 32.1165 60.0579 32.2791 60.0551 32.4417L60.0224 33.3123C60.0133 33.4857 60.0015 33.6629 59.9879 33.8408L59.9529 34.2592C59.9433 34.3721 59.9332 34.4743 59.9224 34.5793L59.9162 34.6465C59.8999 34.8001 59.8824 34.9395 59.8654 35.0795L59.8259 35.398L58.656 35.2416L59.8197 35.4414C59.7869 35.6786 59.7525 35.905 59.7158 36.1308L59.3454 37.9743ZM57.135 37.0506L58.2958 37.2696L57.1429 37.0167L57.3896 35.7305C57.4224 35.5318 57.4534 35.3246 57.4822 35.1168L57.524 34.7859C57.5409 34.6476 57.5567 34.5189 57.5709 34.3907L57.5765 34.3292C57.5872 34.2247 57.5963 34.1287 57.6053 34.0322L57.6369 33.646C57.6488 33.4845 57.6601 33.3225 57.6685 33.161L57.6985 32.3706C57.6985 32.2238 57.7041 32.0741 57.7047 31.9245V31.6868C57.7047 31.562 57.7047 31.4333 57.699 31.3052L57.6939 31.129C57.6894 30.9805 57.6838 30.8337 57.677 30.6869L57.6674 30.5051C57.6595 30.3594 57.6493 30.2109 57.6386 30.063L57.5878 29.4758L58.7582 29.342L57.581 29.438L57.5647 29.2805C57.5483 29.1235 57.5291 28.966 57.5082 28.8079L57.4026 28.0604C57.3749 27.8859 57.3461 27.7075 57.3123 27.5291L57.3044 27.485C57.1587 26.6912 56.9786 25.9216 56.7646 25.1702L56.7607 25.1583C56.6664 24.8258 56.5585 24.4774 56.4405 24.1234L57.546 23.7282L56.427 24.081C56.3141 23.7507 56.1938 23.4125 56.0645 23.076L56.0447 23.0247C55.9154 22.6915 55.7782 22.359 55.6365 22.036L55.6179 21.9931C55.4762 21.6713 55.3249 21.3467 55.1662 21.0254L55.1397 20.9718C54.1347 18.9469 52.8567 17.0694 51.3416 15.3918L51.3252 15.3726C51.0745 15.0959 50.8125 14.8198 50.5483 14.5522C50.2841 14.2846 50.0283 14.0384 49.7669 13.7968L49.7025 13.7403C48.5118 12.6466 47.2201 11.6682 45.8446 10.8185C45.6402 10.6926 45.4347 10.5706 45.228 10.4504L44.9243 10.281C44.8114 10.2172 44.7018 10.1562 44.5917 10.0963L44.3986 9.99359C44.24 9.9089 44.0858 9.82929 43.9306 9.75081L43.7663 9.66838C43.6449 9.60796 43.5252 9.54981 43.4049 9.49166L43.1463 9.37027C42.6602 9.14442 42.1639 8.93326 41.6614 8.73791L41.5293 8.68709C40.9946 8.48271 40.4419 8.29187 39.892 8.12249L39.8033 8.09595C31.673 5.64218 22.96 7.35237 16.4852 12.6693C16.1592 12.9369 15.8439 13.2094 15.5394 13.4868L14.6965 12.6681L15.5044 13.519C15.2091 13.7889 14.915 14.0717 14.6299 14.3597L14.579 14.4111C14.3013 14.6934 14.0246 14.9886 13.7564 15.289L13.7 15.3534C13.4368 15.6515 13.1732 15.9643 12.9219 16.2788L12.6899 16.5746C12.5634 16.7378 12.4403 16.9004 12.3189 17.0653L12.097 17.3701C12.0372 17.4543 11.9807 17.5356 11.9277 17.6174L11.7696 17.8467C11.6335 18.0477 11.4986 18.2509 11.3676 18.4576C11.2417 18.6558 11.1197 18.8556 11 19.0566L10.8532 19.3005C10.7828 19.4214 10.7136 19.5424 10.6454 19.6636L10.4704 19.9837C10.414 20.0853 10.3626 20.1875 10.3095 20.2897L10.1209 20.6556C10.082 20.7341 10.0515 20.7984 10.0204 20.8628L9.71385 21.5194C9.63104 21.7012 9.55199 21.8838 9.47671 22.0671L9.41009 22.2252C9.29453 22.506 9.18481 22.7883 9.08093 23.0721L9.0685 23.1054C8.99623 23.3036 8.93469 23.4775 8.87597 23.6508L8.8229 23.8095C8.75797 24.0059 8.69191 24.2143 8.62868 24.4232L8.60214 24.5101C8.45365 25.007 8.31984 25.5157 8.20692 26.0221L8.19901 26.0577C6.21386 34.8622 9.2808 44.024 16.1955 49.9896L16.252 50.0404C16.4812 50.2375 16.7178 50.4356 16.9589 50.6254L17.0458 50.6931C17.1937 50.81 17.3394 50.9229 17.4873 51.0319L17.8058 51.269C17.9475 51.3723 18.0926 51.4751 18.2388 51.5767L18.8729 52.0069C19.066 52.1334 19.2613 52.2588 19.4595 52.3813C20.3673 52.9418 21.309 53.4457 22.2791 53.8899C23.0374 54.2366 23.8205 54.5494 24.607 54.8192C24.8035 54.8866 25.0001 54.9514 25.197 55.0135C27.1455 55.6291 29.1609 56.0083 31.1999 56.1427C31.5996 56.1686 32.0061 56.185 32.4093 56.1924C33.0111 56.2031 33.6198 56.1924 34.216 56.1602C34.4164 56.15 34.6163 56.1365 34.8167 56.1212C37.4508 55.9199 40.0372 55.3083 42.4824 54.3083L42.5055 54.2947L42.5896 54.2642C43.5452 53.8685 44.4752 53.4136 45.3743 52.9024L45.4369 52.8668C45.5875 52.7795 45.7392 52.6905 45.892 52.5998L45.9581 52.5603C46.0676 52.4936 46.1766 52.4264 46.285 52.3587L46.4544 52.2537C46.5063 52.2209 46.5588 52.1882 46.6102 52.1543L46.8304 52.0086C46.9523 51.9273 47.0771 51.8443 47.1996 51.7591L47.2392 51.732C47.4531 51.5835 47.6767 51.4226 47.8975 51.2588L48.0753 51.1267C48.1391 51.0782 48.2029 51.0285 48.2662 50.9788L48.4638 50.8247C48.5948 50.7213 48.7229 50.6175 48.8505 50.5119L49.2706 50.1584C49.4033 50.0455 49.5365 49.9275 49.6658 49.8084L49.9769 49.5261C50.1463 49.3702 50.31 49.2093 50.4749 49.0462L50.8487 48.6707C50.9808 48.5346 51.1101 48.398 51.2377 48.2591L51.4731 47.9994C51.6237 47.8334 51.7709 47.664 51.9147 47.4912L52.1015 47.2733C52.2845 47.0508 52.4493 46.8436 52.6097 46.6336L52.7791 46.4128C52.9484 46.187 53.1212 45.9533 53.2872 45.715L53.4075 45.5405C53.5893 45.2769 53.7666 45.0132 53.9382 44.7433C54.0551 44.5592 54.1697 44.3718 54.282 44.1843L54.758 43.3645C54.8145 43.2612 54.8709 43.1573 54.9274 43.0529L55.9143 40.943L56.322 39.8742C56.3615 39.7641 56.3982 39.6585 56.4349 39.5529L56.5269 39.2774C56.5563 39.1887 56.5834 39.104 56.6093 39.0193L56.8837 38.0759C56.9193 37.946 56.9515 37.8184 56.9837 37.6897L57.0723 37.3301L57.135 37.0506Z" fill="white"/>
<path d="M58.5114 37.7692C61.8494 23.7794 52.9793 9.67641 38.6996 6.26923C24.4198 2.86204 10.1378 11.4409 6.79984 25.4307C3.46184 39.4205 12.3319 53.5235 26.6116 56.9307C40.8914 60.3379 55.1734 51.759 58.5114 37.7692Z" fill="#EDB557"/>
<path d="M10.0849 17.663C4.90858 25.8171 4.93343 35.736 9.25999 43.7111C11.7866 42.0861 12.9497 38.5901 11.7482 35.8168C11.3338 34.8603 10.6675 33.8881 10.8973 32.8808C11.1621 31.7194 12.4935 31.1023 12.9948 30.0211C13.4381 29.0658 13.1563 27.9535 13.0716 26.9022C12.8272 23.8748 14.4634 20.7921 17.1232 19.2693C18.3411 18.572 19.8091 18.1226 20.5701 16.9635C20.9089 16.4457 21.0783 15.8252 21.4679 15.3414C22.2312 14.39 23.5981 14.2156 24.8036 13.9462C26.009 13.6769 27.364 13.0242 27.5069 11.8177C27.6571 10.549 26.3585 9.49603 26.2896 8.22002C26.2393 7.31666 26.7588 6.63913 27.4256 6C20.4826 7.30819 14.1099 11.3231 10.0849 17.663Z" fill="#E08B46"/>
<path d="M19.5192 8.83289C15.6775 10.9298 12.4314 13.968 10.0852 17.6627C7.86718 21.1416 6.53004 25.1085 6.18945 29.2202C8.07272 27.3354 9.57371 25.1041 10.6097 22.6493C11.1743 21.2988 11.5989 19.8828 12.3295 18.6118C14.3423 15.1113 18.5673 12.893 19.4904 8.96783C19.5011 8.92322 19.5096 8.87805 19.5192 8.83289Z" fill="#BD5A46"/>
<path d="M34.3996 10.5284C34.6294 11.3866 34.9857 12.3916 34.4273 13.0799C33.9378 13.6857 33.0248 13.6834 32.2468 13.8139C30.3096 14.143 28.67 15.7256 28.3002 17.621C28.1907 18.1856 28.1799 18.7767 27.9315 19.2939C27.1315 20.9612 24.7217 20.7455 22.8642 21.0301C18.3937 21.7149 15.7948 26.5632 15.5808 31.0072C15.4272 34.169 16.1087 37.3545 15.7118 40.4925C15.3696 43.1976 13.8875 46.0217 11.4541 47.0984C13.4378 49.7009 15.8836 51.9161 18.6692 53.6332C31.1345 61.331 47.5013 57.7062 55.2262 45.5379C62.9511 33.3695 59.1062 17.2675 46.6425 9.5669C43.0436 7.34211 38.972 5.99466 34.7565 5.6333C34.1365 7.18992 33.9604 8.89163 34.3996 10.5284Z" fill="#F0CB7D"/>
<path d="M46.6421 9.56726C44.377 8.16789 41.9181 7.10993 39.3445 6.42749C39.3395 6.44556 39.3338 6.46306 39.3293 6.48395C39.2288 6.91079 39.1881 7.38111 39.3908 7.77464C39.6133 8.20543 40.0751 8.45216 40.4506 8.76552C41.6363 9.74906 41.9812 11.4756 41.5945 12.9402C41.2077 14.4048 40.2033 15.639 39.069 16.6587C38.4383 17.2261 37.7021 17.7648 36.845 17.8206C35.988 17.8765 35.0343 17.2374 35.071 16.3945C33.1813 17.7687 32.8482 20.7876 34.3935 22.5571C34.7667 22.9851 35.2286 23.3476 35.5227 23.8303C36.3612 25.2204 35.4454 27.0655 34.0971 27.9666C32.7488 28.8677 31.0782 29.1489 29.5537 29.7259C28.175 30.2482 26.7601 31.0397 25.3096 30.7258C23.8591 30.4119 22.9868 28.1461 24.33 27.5437C21.8457 28.2743 19.9481 30.6078 19.772 33.1553C19.6026 35.6266 20.8893 37.9669 21.3105 40.415C22.0637 44.7884 19.5602 49.3549 15.6904 51.4987C16.6339 52.2772 17.6289 52.991 18.6687 53.6352C31.1341 61.333 47.5008 57.7083 55.2257 45.5399C62.9507 33.3716 59.1057 17.2679 46.6421 9.56726Z" fill="#E08B46"/>
<path d="M48.8153 11.0609C48.5765 12.346 47.9515 13.5599 46.9804 14.4485C45.8483 15.4863 44.3696 16.0695 43.0671 16.8938C41.7645 17.7182 40.5518 18.9541 40.4902 20.4802C40.4134 22.3682 42.0813 23.8978 42.5397 25.7378C42.9773 27.4943 42.223 29.3874 40.9255 30.6538C39.6281 31.9202 37.8609 32.6299 36.0699 33.0201C34.6251 33.3346 33.1289 33.4627 31.7406 33.9607C28.5895 35.0899 26.3175 38.2325 26.2639 41.5354C26.2419 42.9091 26.5671 44.2664 26.6862 45.6367C27.008 49.3343 25.7298 53.1138 23.2715 55.9007C34.9131 60.339 48.4218 56.2547 55.2281 45.5362C62.4816 34.1081 59.5304 19.207 48.8153 11.0609Z" fill="#CD6145"/>
<path d="M53.3302 15.4283C53.6283 16.4023 53.9185 17.3779 54.0896 18.3773C54.4848 20.6922 54.0331 23.4107 52.044 24.6862C50.8527 25.4506 49.3085 25.5641 48.1482 26.3721C46.0406 27.84 46.0389 31.0397 47.2449 33.3077C47.8134 34.3804 48.5999 35.3617 48.9263 36.5259C49.2396 37.6399 49.1007 38.8301 48.7812 39.9367C47.9055 42.9647 45.6318 45.563 42.7179 46.8661C39.3201 48.3854 35.3255 48.1557 31.8724 49.5502C28.7597 50.807 26.3082 53.446 25.166 56.5434C36.3486 59.8808 48.7902 55.6813 55.2289 45.5387C61.3261 35.9291 60.2071 23.8686 53.3302 15.4283Z" fill="#BD5A46"/>
<path opacity="0.19" d="M7.22949 27.2543C7.22949 27.2543 10.865 3.04973 38.4877 6.91219C38.4877 6.91219 14.0104 5.42728 7.22949 27.2543Z" fill="white"/>
<path d="M30.6329 38.7958C32.7508 39.6387 33.7868 42.0016 32.9478 44.0731C32.1088 46.1447 29.7115 47.1401 27.5942 46.2971C25.477 45.4542 24.4404 43.0913 25.2794 41.0198C26.1184 38.9482 28.5157 37.9528 30.6329 38.7958Z" fill="#F6D49B"/>
<path d="M36.306 15.0241C38.4239 15.867 39.4605 18.2299 38.6209 20.3014C37.7813 22.373 35.3846 23.3684 33.2673 22.5248C31.15 21.6813 30.1129 19.3196 30.9524 17.2475C31.792 15.1754 34.1888 14.1806 36.306 15.0241Z" fill="#F6D49B"/>
<path d="M45.0598 38.2344L44.8108 38.4263C44.333 38.8696 43.8784 39.3373 43.449 39.8277C42.9149 40.438 42.409 41.1065 42.2125 41.8896C42.016 42.6727 42.1939 43.5964 42.8369 44.1068C43.0188 44.2513 43.2514 44.362 43.4795 44.3185C43.6182 44.2833 43.7477 44.2184 43.8589 44.1283C45.3725 43.0464 46.4747 41.4834 46.9857 39.6944C47.1454 39.1264 47.2426 38.5296 47.1483 37.9442C47.115 37.7369 47.0512 37.5218 46.8948 37.3795C46.5238 37.0357 45.4906 37.9752 45.0598 38.2344Z" fill="#EDB557"/>
<path d="M39.0515 47.4173C37.3577 47.2993 35.7316 47.9746 34.1885 48.6532C33.4133 48.992 32.5941 49.3776 32.156 50.0907C32.0769 50.2189 32.0103 50.3668 32.0374 50.5153C32.1119 50.9201 32.8425 51.0088 33.3603 51.0799L34.0468 51.1313C35.1995 51.2252 36.3579 51.2226 37.5101 51.1234C38.3006 51.0551 39.095 50.9399 39.8301 50.6502C40.5076 50.3832 41.1851 49.8694 41.2309 49.1523C41.263 48.6442 40.9486 48.1541 40.524 47.8622C40.0994 47.5703 39.5704 47.4523 39.0515 47.4173Z" fill="#E08B46"/>
<path d="M9.80052 26.509C9.1868 27.6078 9.14614 28.921 9.13372 30.179C9.12808 30.8113 9.13768 31.4866 9.49676 32.0145C9.56113 32.1093 9.64356 32.2025 9.75535 32.2324C10.0608 32.3143 10.3521 31.853 10.5633 31.5278L10.8146 31.084C11.242 30.3407 11.6041 29.5616 11.8969 28.7556C12.0973 28.2028 12.2667 27.6315 12.2955 27.0432C12.3226 26.5017 12.1775 25.8784 11.6925 25.6136C11.3492 25.4261 10.9094 25.4752 10.5718 25.6666C10.2341 25.858 9.98571 26.1737 9.80052 26.509Z" fill="#EDB557"/>
<path d="M52.9998 24.6763C52.8959 23.1214 52.0513 21.7132 51.2151 20.3825C50.795 19.7134 50.3287 19.0099 49.5986 18.6886C49.4677 18.6322 49.3197 18.5864 49.1831 18.6271C48.8099 18.74 48.8189 19.4147 48.8184 19.8941L48.8568 20.5247C48.9146 21.5869 49.064 22.6421 49.3034 23.6786C49.4682 24.3911 49.6783 25.102 50.0447 25.7394C50.3834 26.3272 50.9543 26.8884 51.6374 26.8511C52.1207 26.8246 52.5453 26.487 52.7666 26.0658C52.988 25.6446 53.0309 25.1511 52.9998 24.6763Z" fill="#E08B46"/>
<path d="M23.3411 17.512C24.2371 17.276 24.9547 16.6396 25.6283 16.0163C25.9671 15.703 26.3199 15.3602 26.4187 14.9125C26.4431 14.8329 26.4373 14.747 26.4024 14.6714C26.2894 14.4738 25.897 14.5557 25.617 14.6105L25.2528 14.7042C24.6408 14.8569 24.0428 15.0613 23.4653 15.3151C23.0701 15.489 22.6799 15.6888 22.353 15.9678C22.0521 16.2258 21.7952 16.612 21.9013 16.9925C21.977 17.2618 22.2277 17.4623 22.5009 17.5385C22.7742 17.6147 23.0672 17.5837 23.3411 17.512Z" fill="#E08B46"/>
<path d="M45.951 46.3578C46.3034 47.0269 46.012 47.8586 45.3006 48.2148C44.5892 48.5711 43.7265 48.317 43.3742 47.6502C43.0219 46.9834 43.3132 46.1489 44.0246 45.7927C44.736 45.4364 45.5999 45.6882 45.951 46.3578Z" fill="#E08B46"/>
<path d="M31.2221 9.34C31.575 10.0096 31.2836 10.8413 30.5722 11.1976C29.8608 11.5538 28.9981 11.3003 28.6458 10.6329C28.2935 9.96559 28.5843 9.12941 29.2951 8.77314C30.0059 8.41687 30.8703 8.67095 31.2221 9.34Z" fill="#E08B46"/>
<path d="M54.9135 28.0947C55.2658 28.7638 54.9751 29.596 54.2631 29.9523C53.5511 30.3085 52.689 30.0545 52.3372 29.3877C51.9855 28.7209 52.274 27.8824 52.9871 27.5279C53.7002 27.1733 54.5612 27.4251 54.9135 28.0947Z" fill="#E08B46"/>
<path d="M42.5129 46.0322C42.5496 46.3608 42.2131 46.6635 41.762 46.7069C41.3109 46.7504 40.9151 46.5206 40.8795 46.192C40.844 45.8634 41.1793 45.5608 41.6305 45.5145C42.0816 45.4682 42.4762 45.7036 42.5129 46.0322Z" fill="#E08B46"/>
<path d="M51.0735 28.532C51.1096 28.8612 50.7737 29.1633 50.3226 29.2096C49.8714 29.2558 49.4757 29.0227 49.4401 28.6946C49.4045 28.3666 49.7399 28.0634 50.1904 28.0171C50.641 27.9708 51.0368 28.2034 51.0735 28.532Z" fill="#E08B46"/>
<path d="M10.0021 35.0067C10.2279 35.4358 10.041 35.9665 9.58539 36.1963C9.12975 36.4261 8.57757 36.2618 8.35173 35.8327C8.12588 35.4036 8.31277 34.8729 8.7684 34.6436C9.22404 34.4144 9.77622 34.5776 10.0021 35.0067Z" fill="#F0CB7D"/>
<path d="M26.0767 11.1137C26.3929 11.7139 26.1331 12.4592 25.4935 12.7793C24.8538 13.0995 24.0819 12.8708 23.7669 12.2712C23.4518 11.6716 23.7104 10.9252 24.3496 10.6062C24.9887 10.2872 25.7633 10.5108 26.0767 11.1137Z" fill="#F0CB7D"/>
<path d="M8.85569 32.9899C9.01491 33.2914 8.88336 33.6675 8.56322 33.8267C8.24309 33.9859 7.85352 33.873 7.69486 33.5715C7.65837 33.4974 7.63699 33.4169 7.632 33.3345C7.627 33.2521 7.63848 33.1695 7.66576 33.0916C7.69305 33.0137 7.73559 32.942 7.7909 32.8807C7.84621 32.8195 7.91318 32.7698 7.98789 32.7347C8.30802 32.5738 8.69647 32.6884 8.85569 32.9899Z" fill="#F0CB7D"/>
<path d="M23.4644 12.8959C23.4975 12.9626 23.517 13.0352 23.5217 13.1095C23.5263 13.1838 23.516 13.2583 23.4914 13.3286C23.4667 13.3988 23.4283 13.4634 23.3783 13.5186C23.3282 13.5737 23.2677 13.6183 23.2001 13.6497C23.0655 13.7202 22.9086 13.7357 22.7628 13.6927C22.617 13.6497 22.4936 13.5516 22.4187 13.4193C22.3855 13.3526 22.3661 13.28 22.3614 13.2057C22.3568 13.1314 22.3671 13.0569 22.3917 12.9866C22.4164 12.9164 22.4548 12.8518 22.5048 12.7966C22.5549 12.7415 22.6154 12.6969 22.683 12.6655C22.8176 12.5947 22.9745 12.5791 23.1204 12.6221C23.2663 12.6651 23.3897 12.7634 23.4644 12.8959Z" fill="#F0CB7D"/>
<path style="mix-blend-mode:multiply" opacity="0.68" d="M53.1914 43.4268C44.2464 55.8335 26.712 58.7446 13.9785 49.9582C15.4009 51.3538 16.9742 52.5867 18.6693 53.6343C31.1346 61.3321 47.5014 57.7074 55.2263 45.539C59.3372 39.063 60.1711 31.4725 58.1735 24.6272C58.9036 31.2949 57.1278 37.9958 53.1914 43.4268Z" fill="url(#paint0_linear)"/>
<path style="mix-blend-mode:multiply" opacity="0.68" d="M49.5151 37.0888C41.7908 49.2566 25.4234 52.8814 12.9581 45.1836C11.2133 44.1053 9.59764 42.831 8.14258 41.3855C10.1977 46.2682 13.7621 50.6032 18.6685 53.6334C31.1338 61.3313 47.5006 57.7065 55.2255 45.5381C61.8421 35.1144 59.9648 21.8078 51.4573 13.3658C54.6225 20.8869 54.1991 29.71 49.5151 37.0888Z" fill="url(#paint1_linear)"/>
<path opacity="0.38" d="M54.8146 44.2417C48.3905 54.3622 36.3407 58.9242 25.0537 56.5111C36.2645 59.9089 48.7671 55.7133 55.2256 45.538C58.3705 40.6034 59.716 34.7346 59.035 28.9229C59.1967 34.3369 57.7262 39.6744 54.8146 44.2417Z" fill="#E08B46"/>
<path d="M21.1943 23.0702C21.1103 23.027 21.0373 22.9651 20.981 22.8892C20.9247 22.8133 20.8866 22.7255 20.8696 22.6326C20.8392 22.4681 20.8741 22.2981 20.967 22.159C21.0599 22.0198 21.2034 21.9223 21.367 21.8873C24.364 21.2663 26.3655 22.2092 27.5681 23.2012C25.8991 18.5787 20.882 19.5182 20.6562 19.564C20.576 19.58 20.4934 19.5799 20.4133 19.5636C20.3331 19.5473 20.257 19.5151 20.1895 19.469C20.122 19.4229 20.0643 19.3637 20.02 19.295C19.9756 19.2263 19.9455 19.1494 19.9313 19.0688C19.9014 18.9044 19.9368 18.7349 20.03 18.5962C20.1232 18.4575 20.2669 18.3607 20.4304 18.3264C20.5021 18.3111 27.6375 16.9431 29.1021 24.0419C29.1443 24.2497 29.1171 24.4656 29.0248 24.6565C28.9325 24.8474 28.7802 25.0027 28.5912 25.0988C28.4078 25.1962 28.1965 25.2275 27.9928 25.1874C27.7891 25.1473 27.6054 25.0382 27.4727 24.8786C26.4987 23.724 24.688 22.483 21.6008 23.1238C21.4632 23.1535 21.3195 23.1346 21.1943 23.0702Z" fill="#111214"/>
<path d="M40.8592 40.2816L19.4736 32.533C19.4736 32.533 20.5565 53.2381 40.8592 40.2816Z" fill="#16181D"/>
<path d="M33.149 42.7279C32.0565 41.6754 30.8951 40.6665 29.5355 40.0076C27.0309 38.796 24.1153 38.8897 21.3408 39.3606C23.1922 42.9492 26.8581 46.1358 34.093 43.6747C33.7825 43.3523 33.4685 43.0361 33.149 42.7279Z" fill="#A44E46"/>
<path style="mix-blend-mode:multiply" opacity="0.68" d="M29.5335 40.0076C27.029 38.796 24.1133 38.8897 21.3389 39.3606C22.6296 41.8618 24.8027 44.1659 28.4529 44.4985C27.2209 43.9051 25.4667 42.7482 24.635 40.7455C24.635 40.7455 29.5589 40.4824 33.7144 43.7944C33.8409 43.7543 33.9651 43.7165 34.0938 43.6725C33.785 43.3506 33.4728 43.0339 33.1515 42.7256C32.0562 41.6754 30.8948 40.6665 29.5335 40.0076Z" fill="url(#paint2_linear)"/>
<path d="M37.8111 39.1768L22.2534 33.5398L22.1196 33.9102C22.0562 34.0798 22.0268 34.2602 22.0331 34.4412C22.0394 34.6222 22.0812 34.8001 22.1563 34.9649C22.2314 35.1297 22.3382 35.2781 22.4706 35.4016C22.6031 35.5251 22.7585 35.6213 22.9281 35.6847L35.9197 40.3918C36.0907 40.4517 36.2718 40.4774 36.4528 40.4672C36.6337 40.4571 36.8108 40.4114 36.974 40.3327C37.1373 40.254 37.2834 40.144 37.4041 40.0088C37.5248 39.8736 37.6176 39.716 37.6773 39.5449L37.8111 39.1768Z" fill="#FDF8F9"/>
<path style="mix-blend-mode:multiply" opacity="0.5" d="M27.8833 12.2277C27.8833 12.2277 27.9815 12.5032 27.9397 12.9679C27.9341 13.03 27.9262 13.0949 27.9149 13.1632C27.9149 13.1632 27.9149 13.1689 27.9149 13.1717C27.903 13.2394 27.8889 13.31 27.8714 13.384L27.8646 13.4071C27.8494 13.4687 27.8308 13.5325 27.8082 13.598C27.802 13.6166 27.7963 13.6352 27.7895 13.6544C27.7641 13.7301 27.7359 13.8074 27.7026 13.8876C27.7026 13.8876 24.3714 13.297 21.165 15.3731C21.1645 15.3731 23.3935 12.2429 27.8833 12.2277Z" fill="url(#paint3_linear)"/>
<path d="M27.4746 13.7226C27.4746 13.7226 24.1435 13.1326 20.9365 15.2086C20.9365 15.2086 23.165 12.0762 27.6553 12.0632C27.6576 12.0632 27.8924 12.7204 27.4746 13.7226Z" fill="#34404E"/>
<path style="mix-blend-mode:multiply" d="M27.7141 12.8029C27.6824 13.1197 27.6026 13.4298 27.4776 13.7226C27.4776 13.7226 24.1464 13.1326 20.9395 15.2087C23.9595 12.3495 27.3714 12.7543 27.7141 12.8029Z" fill="url(#paint4_linear)"/>
<path d="M37.796 25.0138C36.2715 27.6843 37.0456 30.9986 39.5276 32.4208C42.0096 33.843 45.2584 32.8267 46.7845 30.1562C48.3106 27.4856 47.5348 24.1714 45.0528 22.7486C42.5708 21.3258 39.3221 22.3432 37.796 25.0138Z" fill="#111214"/>
<path style="mix-blend-mode:multiply" opacity="0.68" d="M37.4102 25.4701C35.8163 28.2604 36.5221 31.6649 38.986 33.0764C41.4499 34.4879 44.7405 33.3672 46.3343 30.5769C47.9282 27.7867 47.223 24.3815 44.7585 22.97C42.294 21.5585 39.0063 22.6804 37.4102 25.4701Z" fill="url(#paint5_linear)"/>
<path style="mix-blend-mode:multiply" d="M37.82 25.3659C36.3046 28.0195 36.9731 31.2547 39.3179 32.5928C41.6627 33.9309 44.7873 32.8695 46.3021 30.217C47.8169 27.5645 47.149 24.3287 44.8042 22.99C42.4594 21.6514 39.3326 22.7134 37.82 25.3659Z" fill="url(#paint6_linear)"/>
<path d="M38.0047 25.8108C36.5045 28.4368 37.1685 31.642 39.4879 32.9688C41.8073 34.2957 44.9041 33.2421 46.4043 30.6161C47.9044 27.9901 47.2399 24.7855 44.9205 23.4581C42.6011 22.1307 39.5048 23.1848 38.0047 25.8108Z" fill="#FDF8F9"/>
<path d="M39.9932 26.9223C39.4574 27.8601 39.6742 28.9932 40.4782 29.4528C41.2822 29.9124 42.3674 29.5251 42.906 28.5873C43.4447 27.6495 43.2245 26.5163 42.4205 26.0567C41.6165 25.5971 40.5302 25.9816 39.9932 26.9223Z" fill="#111214"/>
<path d="M42.6075 27.6565C42.4269 27.9727 42.4664 28.3341 42.6956 28.4673C42.9248 28.6006 43.2602 28.4493 43.4392 28.1325C43.6182 27.8158 43.5803 27.455 43.3505 27.3212C43.1208 27.1874 42.7888 27.3381 42.6075 27.6565Z" fill="#FDF8F9"/>
<path style="mix-blend-mode:multiply" opacity="0.38" d="M44.8395 23.4146C43.5641 23.3186 42.2135 24.0458 41.4598 25.3647C40.4593 27.115 40.8901 29.2453 42.4196 30.121C43.9491 30.9967 46.002 30.2903 47.0025 28.5367C47.0674 28.4238 47.1256 28.3075 47.1787 28.1917C47.0949 29.0458 46.8302 29.8722 46.4023 30.6161C44.9022 33.2421 41.8053 34.2956 39.4859 32.9688C37.1665 31.642 36.5026 28.4367 38.0027 25.8108C39.4876 23.2153 42.5297 22.1578 44.8395 23.4146Z" fill="url(#paint7_linear)"/>
<path opacity="0.45" d="M39.4579 32.5492C41.2082 33.6727 43.4768 33.4254 45.209 32.1099C43.5795 33.5897 41.2985 34.0042 39.4884 32.9687C37.4976 31.8299 36.7281 29.3078 37.4982 26.9551C36.9517 29.1361 37.6659 31.3957 39.4579 32.5492Z" fill="#FDF8F9"/>
<path opacity="0.32" d="M37.7485 29.4565C37.832 29.6823 37.9602 29.8404 38.0353 29.811C38.1104 29.7817 38.1025 29.5762 38.0189 29.3503C37.9354 29.1245 37.8066 28.967 37.7321 28.9963C37.6576 29.0257 37.6649 29.2318 37.7485 29.4565Z" fill="#FDF8F9"/>
<path style="mix-blend-mode:multiply" opacity="0.39" d="M44.6992 20.8671C44.6992 20.8598 44.6992 20.8485 44.6964 20.8355V20.8248C44.6964 20.8078 44.6964 20.7881 44.6964 20.7649C44.6958 20.7019 44.6986 20.639 44.7048 20.5763C44.7051 20.5733 44.7051 20.5703 44.7048 20.5673C44.7082 20.5329 44.7133 20.4962 44.7189 20.4578C44.7189 20.4527 44.7189 20.4482 44.7218 20.4425C44.7372 20.3454 44.7591 20.2494 44.7873 20.1551C44.8796 19.8515 45.0272 19.5674 45.2226 19.3173C45.2226 19.3173 48.6102 20.5137 49.592 24.8092C49.592 24.8092 48.1467 21.8518 44.7014 20.8829C44.7014 20.8829 44.7014 20.8784 44.7014 20.8716L44.6992 20.8671Z" fill="url(#paint8_linear)"/>
<path d="M49.9314 24.525C49.9314 24.525 48.4866 21.5676 45.0408 20.5987C45.0408 20.5987 44.9358 19.8472 45.5619 19.0331C45.5619 19.0325 48.949 20.2295 49.9314 24.525Z" fill="#34404E"/>
<path style="mix-blend-mode:multiply" d="M45.0409 20.5989C45.0216 20.3532 45.0508 20.1061 45.1268 19.8717C48.8532 20.5876 49.9315 24.5257 49.9315 24.5257C49.9315 24.5257 48.4867 21.5678 45.0409 20.5989Z" fill="url(#paint9_linear)"/>
<defs>
<linearGradient id="paint0_linear" x1="32.7707" y1="58.4235" x2="41.7655" y2="20.7256" gradientUnits="userSpaceOnUse">
<stop stop-color="#8A4946"/>
<stop offset="1" stop-color="#EDECEC"/>
</linearGradient>
<linearGradient id="paint1_linear" x1="52447.8" y1="-238974" x2="95997.7" y2="-238974" gradientUnits="userSpaceOnUse">
<stop stop-color="#8A4946"/>
<stop offset="1" stop-color="#EDECEC"/>
</linearGradient>
<linearGradient id="paint2_linear" x1="12006.4" y1="15640.9" x2="14864.4" y2="16674.6" gradientUnits="userSpaceOnUse">
<stop stop-color="#8A4946"/>
<stop offset="1" stop-color="#EDECEC"/>
</linearGradient>
<linearGradient id="paint3_linear" x1="25.2432" y1="14.8937" x2="25.4328" y2="10.9467" gradientUnits="userSpaceOnUse">
<stop stop-color="#4D4D4D"/>
<stop offset="1" stop-color="#EDECEC"/>
</linearGradient>
<linearGradient id="paint4_linear" x1="-37242" y1="3152.11" x2="-37240.5" y2="3016.64" gradientUnits="userSpaceOnUse">
<stop stop-color="#4D4D4D"/>
<stop offset="1" stop-color="#EDECEC"/>
</linearGradient>
<linearGradient id="paint5_linear" x1="5931.96" y1="4705.84" x2="7933.17" y2="4705.84" gradientUnits="userSpaceOnUse">
<stop stop-color="#8A4946"/>
<stop offset="1" stop-color="#EDECEC"/>
</linearGradient>
<linearGradient id="paint6_linear" x1="61960.8" y1="56188" x2="60428.2" y2="57183.9" gradientUnits="userSpaceOnUse">
<stop stop-color="#4D4D4D"/>
<stop offset="1" stop-color="#EDECEC"/>
</linearGradient>
<linearGradient id="paint7_linear" x1="59591.8" y1="56846.4" x2="60812.9" y2="55915" gradientUnits="userSpaceOnUse">
<stop stop-color="#4D4D4D"/>
<stop offset="1" stop-color="#EDECEC"/>
</linearGradient>
<linearGradient id="paint8_linear" x1="24089" y1="20857.9" x2="24285.6" y2="20234.6" gradientUnits="userSpaceOnUse">
<stop stop-color="#4D4D4D"/>
<stop offset="1" stop-color="#EDECEC"/>
</linearGradient>
<linearGradient id="paint9_linear" x1="24647.9" y1="18700.4" x2="24772.9" y2="18290.4" gradientUnits="userSpaceOnUse">
<stop stop-color="#4D4D4D"/>
<stop offset="1" stop-color="#EDECEC"/>
</linearGradient>
</defs>
</svg>
